src/FPGA/AutoTrade_top_tb.vcd
$date
	Sun Dec 22 21:45:15 2024
$end
$version
	Icarus Verilog
$end
$timescale
	1ps
$end
$scope module AutoTrade_top_tb $end
$var wire 1 ! sell $end
$var wire 1 " close $end
$var wire 1 # buy $end
$var reg 1 $ clk $end
$var reg 9 % input_data [8:0] $end
$var reg 1 & input_done $end
$var reg 1 ' pair $end
$var reg 1 ( rst_n $end
$scope module uut $end
$var wire 1 $ clk $end
$var wire 9 ) input_data [8:0] $end
$var wire 1 & input_done $end
$var wire 1 ' pair $end
$var wire 1 ( rst_n $end
$var reg 1 # buy $end
$var reg 1 " close $end
$var reg 8 * cnt [7:0] $end
$var reg 3 + index [2:0] $end
$var reg 16 , ma5 [15:0] $end
$var reg 16 - profit_percent [15:0] $end
$var reg 1 ! sell $end
$var reg 4 . state [3:0] $end
$upscope $end
$scope begin $ivl_for_loop0 $end
$var integer 32 / i [31:0] $end
$scope begin $ivl_for_loop1 $end
$var integer 32 0 j [31:0] $end
$upscope $end
$upscope $end
$upscope $end
$enddefinitions $end
$comment Show the parameter values. $end
$dumpall
$end
#0
$dumpvars
bx 0
bx /
bx .
bx -
bx ,
bx +
bx *
b0 )
0(
0'
0&
b0 %
0$
x#
x"
x!
$end
#5000
0"
0!
0#
b0 *
b0 .
1$
#10000
0$
1&
b1 %
b1 )
1(
#15000
b1 .
b1 *
1$
#20000
0$
0&
#25000
1$
#30000
0$
1&
b100100 %
b100100 )
b0 0
b0 /
#35000
b10 *
b0 +
1$
#40000
0$
0&
#45000
1$
#50000
0$
1&
b10000001 %
b10000001 )
b1 0
#55000
b11 *
1$
#60000
0$
0&
#65000
1$
#70000
0$
1&
b1001 %
b1001 )
b10 0
#75000
b100 *
1$
#80000
0$
0&
#85000
1$
#90000
0$
1&
b1100011 %
b1100011 )
b11 0
#95000
b101 *
1$
#100000
0$
0&
#105000
1$
#110000
0$
1&
b1101 %
b1101 )
b100 0
#115000
b110 *
1$
#120000
0$
0&
#125000
1$
#130000
0$
1&
b10001101 %
b10001101 )
b101 0
#135000
b111 *
1$
#140000
0$
0&
#145000
1$
#150000
0$
1&
b1100101 %
b1100101 )
b110 0
#155000
b1000 *
1$
#160000
0$
0&
#165000
1$
#170000
0$
1&
b10010 %
b10010 )
b111 0
#175000
b1001 *
1$
#180000
0$
0&
#185000
1$
#190000
0$
1&
b1 %
b1 )
b1000 0
#195000
b1010 *
1$
#200000
0$
0&
#205000
1$
#210000
0$
1&
b1101 %
b1101 )
b1001 0
#215000
b1011 *
1$
#220000
0$
0&
#225000
1$
#230000
0$
1&
b1110110 %
b1110110 )
b1010 0
#235000
b1100 *
b1 +
1$
#240000
0$
0&
#245000
1$
#250000
0$
1&
b111101 %
b111101 )
b1 /
b0 0
#255000
b1101 *
1$
#260000
0$
0&
#265000
1$
#270000
0$
1&
b11101101 %
b11101101 )
b1 0
#275000
b1110 *
1$
#280000
0$
0&
#285000
1$
#290000
0$
1&
b10001100 %
b10001100 )
b10 0
#295000
b1111 *
1$
#300000
0$
0&
#305000
1$
#310000
0$
1&
b11111001 %
b11111001 )
b11 0
#315000
b10000 *
1$
#320000
0$
0&
#325000
1$
#330000
0$
1&
b11000110 %
b11000110 )
b100 0
#335000
b10001 *
1$
#340000
0$
0&
#345000
1$
#350000
0$
1&
b11000101 %
b11000101 )
b101 0
#355000
b10010 *
1$
#360000
0$
0&
#365000
1$
#370000
0$
1&
b10101010 %
b10101010 )
b110 0
#375000
b10011 *
1$
#380000
0$
0&
#385000
1$
#390000
0$
1&
b11100101 %
b11100101 )
b111 0
#395000
b10100 *
1$
#400000
0$
0&
#405000
1$
#410000
0$
1&
b1110111 %
b1110111 )
b1000 0
#415000
b10101 *
1$
#420000
0$
0&
#425000
1$
#430000
0$
1&
b10010 %
b10010 )
b1001 0
#435000
b10110 *
1$
#440000
0$
0&
#445000
1$
#450000
0$
1&
b10001111 %
b10001111 )
b1010 0
#455000
b10111 *
b10 +
1$
#460000
0$
0&
#465000
1$
#470000
0$
1&
b11110010 %
b11110010 )
b10 /
b0 0
#475000
b11000 *
1$
#480000
0$
0&
#485000
1$
#490000
0$
1&
b11001110 %
b11001110 )
b1 0
#495000
b11001 *
1$
#500000
0$
0&
#505000
1$
#510000
0$
1&
b11101000 %
b11101000 )
b10 0
#515000
b11010 *
1$
#520000
0$
0&
#525000
1$
#530000
0$
1&
b11000101 %
b11000101 )
b11 0
#535000
b11011 *
1$
#540000
0$
0&
#545000
1$
#550000
0$
1&
b1011100 %
b1011100 )
b100 0
#555000
b11100 *
1$
#560000
0$
0&
#565000
1$
#570000
0$
1&
b10111101 %
b10111101 )
b101 0
#575000
b11101 *
1$
#580000
0$
0&
#585000
1$
#590000
0$
1&
b101101 %
b101101 )
b110 0
#595000
b11110 *
1$
#600000
0$
0&
#605000
1$
#610000
0$
1&
b1100101 %
b1100101 )
b111 0
#615000
b11111 *
1$
#620000
0$
0&
#625000
1$
#630000
0$
1&
b1100011 %
b1100011 )
b1000 0
#635000
b100000 *
1$
#640000
0$
0&
#645000
1$
#650000
0$
1&
b1010 %
b1010 )
b1001 0
#655000
b100001 *
1$
#660000
0$
0&
#665000
1$
#670000
0$
1&
b10000000 %
b10000000 )
b1010 0
#675000
b100010 *
b11 +
1$
#680000
0$
0&
#685000
1$
#690000
0$
1&
b100000 %
b100000 )
b11 /
b0 0
#695000
b100011 *
1$
#700000
0$
0&
#705000
1$
#710000
0$
1&
b10101010 %
b10101010 )
b1 0
#715000
b100100 *
1$
#720000
0$
0&
#725000
1$
#730000
0$
1&
b10011101 %
b10011101 )
b10 0
#735000
b100101 *
1$
#740000
0$
0&
#745000
1$
#750000
0$
1&
b10010110 %
b10010110 )
b11 0
#755000
b100110 *
1$
#760000
0$
0&
#765000
1$
#770000
0$
1&
b10011 %
b10011 )
b100 0
#775000
b100111 *
1$
#780000
0$
0&
#785000
1$
#790000
0$
1&
b1101 %
b1101 )
b101 0
#795000
b101000 *
1$
#800000
0$
0&
#805000
1$
#810000
0$
1&
b1010011 %
b1010011 )
b110 0
#815000
b101001 *
1$
#820000
0$
0&
#825000
1$
#830000
0$
1&
b1101011 %
b1101011 )
b111 0
#835000
b101010 *
1$
#840000
0$
0&
#845000
1$
#850000
0$
1&
b11010101 %
b11010101 )
b1000 0
#855000
b101011 *
1$
#860000
0$
0&
#865000
1$
#870000
0$
1&
b10 %
b10 )
b1001 0
#875000
b101100 *
1$
#880000
0$
0&
#885000
1$
#890000
0$
1&
b10101110 %
b10101110 )
b1010 0
#895000
b101101 *
b100 +
1$
#900000
0$
0&
#905000
1$
#910000
0$
1&
b11101 %
b11101 )
b100 /
b0 0
#915000
b101110 *
1$
#920000
0$
0&
#925000
1$
#930000
0$
1&
b11001111 %
b11001111 )
b1 0
#935000
b101111 *
1$
#940000
0$
0&
#945000
1$
#950000
0$
1&
b100011 %
b100011 )
b10 0
#955000
b110000 *
1$
#960000
0$
0&
#965000
1$
#970000
0$
1&
b1010 %
b1010 )
b11 0
#975000
b110001 *
1$
#980000
0$
0&
#985000
1$
#990000
0$
1&
b11001010 %
b11001010 )
b100 0
#995000
b110010 *
1$
#1000000
0$
0&
#1005000
1$
#1010000
0$
1&
b111100 %
b111100 )
b101 0
#1015000
b110011 *
1$
#1020000
0$
0&
#1025000
1$
#1030000
0$
1&
b11110010 %
b11110010 )
b110 0
#1035000
b110100 *
1$
#1040000
0$
0&
#1045000
1$
#1050000
0$
1&
b10001010 %
b10001010 )
b111 0
#1055000
b110101 *
1$
#1060000
0$
0&
#1065000
1$
#1070000
0$
1&
b1000001 %
b1000001 )
b1000 0
#1075000
b110110 *
1$
#1080000
0$
0&
#1085000
1$
#1090000
0$
1&
b11011000 %
b11011000 )
b1001 0
#1095000
b0 *
b10 .
1$
#1100000
0$
0&
#1105000
b0 .
b1000000010101001 ,
1$
#1110000
0$
1&
b1111000 %
b1111000 )
b1010 0
#1115000
b1 *
1$
#1120000
0$
0&
#1125000
1$
#1130000
0$
1&
b10 %
b10 )
b101 /
b1011 0
#1135000
b0 *
b11 .
1$
#1140000
0$
0&
#1145000
1$
#1150000
0$
1&
b0 %
b0 )
#1155000
b1 *
b0xxxxxxxx -
1$
#1160000
0$
0&
#1165000
1$
#1170000
0$
1&
b11111111 %
b11111111 )
#1175000
b0 *
b100 .
b11111111 -
1$
#1180000
0$
0&
#1185000
b0 .
1"
1$
#1190000
0$
#1195000
0"
b1 *
1$
